%YAML 1.1
%TAG !u! tag:unity3d.com,2011:
--- !u!1 &5175841708494613891
GameObject:
  m_ObjectHideFlags: 0
  m_CorrespondingSourceObject: {fileID: 0}
  m_PrefabInstance: {fileID: 0}
  m_PrefabAsset: {fileID: 0}
  serializedVersion: 6
  m_Component:
  - component: {fileID: 2109270586469100991}
  - component: {fileID: 2241970355197110752}
  - component: {fileID: 7521160577370714738}
  m_Layer: 13
  m_Name: WeaponHealth
  m_TagString: Untagged
  m_Icon: {fileID: 0}
  m_NavMeshLayer: 0
  m_StaticEditorFlags: 0
  m_IsActive: 1
--- !u!4 &2109270586469100991
Transform:
  m_ObjectHideFlags: 0
  m_CorrespondingSourceObject: {fileID: 0}
  m_PrefabInstance: {fileID: 0}
  m_PrefabAsset: {fileID: 0}
  m_GameObject: {fileID: 5175841708494613891}
  m_LocalRotation: {x: 0, y: 0.7071068, z: 0, w: 0.7071068}
  m_LocalPosition: {x: 0.5, y: 0, z: 0.75}
  m_LocalScale: {x: 1, y: 1, z: 1}
  m_Children:
  - {fileID: 6925763326567616592}
  m_Father: {fileID: 0}
  m_RootOrder: 0
  m_LocalEulerAnglesHint: {x: 0, y: 90, z: 0}
--- !u!95 &2241970355197110752
Animator:
  serializedVersion: 3
  m_ObjectHideFlags: 0
  m_CorrespondingSourceObject: {fileID: 0}
  m_PrefabInstance: {fileID: 0}
  m_PrefabAsset: {fileID: 0}
  m_GameObject: {fileID: 5175841708494613891}
  m_Enabled: 1
  m_Avatar: {fileID: 0}
  m_Controller: {fileID: 9100000, guid: 6748a31b7d46f1d4996587dea8e510cd, type: 2}
  m_CullingMode: 0
  m_UpdateMode: 0
  m_ApplyRootMotion: 0
  m_LinearVelocityBlending: 0
  m_WarningMessage: 
  m_HasTransformHierarchy: 1
  m_AllowConstantClipSamplingOptimization: 1
  m_KeepAnimatorControllerStateOnDisable: 0
--- !u!114 &7521160577370714738
MonoBehaviour:
  m_ObjectHideFlags: 0
  m_CorrespondingSourceObject: {fileID: 0}
  m_PrefabInstance: {fileID: 0}
  m_PrefabAsset: {fileID: 0}
  m_GameObject: {fileID: 5175841708494613891}
  m_Enabled: 1
  m_EditorHideFlags: 0
  m_Script: {fileID: 11500000, guid: a0362c75e5a11ce4e832fd49381e1412, type: 3}
  m_Name: 
  m_EditorClassIdentifier: 
--- !u!1001 &6925763326567484112
PrefabInstance:
  m_ObjectHideFlags: 0
  serializedVersion: 2
  m_Modification:
    m_TransformParent: {fileID: 2109270586469100991}
    m_Modifications:
    - target: {fileID: 100000, guid: 3fbd550bf43bbdb4ba2b9054f2a76946, type: 3}
      propertyPath: m_Name
      value: healthFlask
      objectReference: {fileID: 0}
    - target: {fileID: 400000, guid: 3fbd550bf43bbdb4ba2b9054f2a76946, type: 3}
      propertyPath: m_LocalPosition.x
      value: -0
      objectReference: {fileID: 0}
    - target: {fileID: 400000, guid: 3fbd550bf43bbdb4ba2b9054f2a76946, type: 3}
      propertyPath: m_LocalPosition.y
      value: 0
      objectReference: {fileID: 0}
    - target: {fileID: 400000, guid: 3fbd550bf43bbdb4ba2b9054f2a76946, type: 3}
      propertyPath: m_LocalPosition.z
      value: 0
      objectReference: {fileID: 0}
    - target: {fileID: 400000, guid: 3fbd550bf43bbdb4ba2b9054f2a76946, type: 3}
      propertyPath: m_LocalRotation.x
      value: -0.7071068
      objectReference: {fileID: 0}
    - target: {fileID: 400000, guid: 3fbd550bf43bbdb4ba2b9054f2a76946, type: 3}
      propertyPath: m_LocalRotation.y
      value: 0
      objectReference: {fileID: 0}
    - target: {fileID: 400000, guid: 3fbd550bf43bbdb4ba2b9054f2a76946, type: 3}
      propertyPath: m_LocalRotation.z
      value: -0
      objectReference: {fileID: 0}
    - target: {fileID: 400000, guid: 3fbd550bf43bbdb4ba2b9054f2a76946, type: 3}
      propertyPath: m_LocalRotation.w
      value: 0.7071068
      objectReference: {fileID: 0}
    - target: {fileID: 400000, guid: 3fbd550bf43bbdb4ba2b9054f2a76946, type: 3}
      propertyPath: m_RootOrder
      value: 0
      objectReference: {fileID: 0}
    - target: {fileID: 400000, guid: 3fbd550bf43bbdb4ba2b9054f2a76946, type: 3}
      propertyPath: m_LocalEulerAnglesHint.x
      value: 0
      objectReference: {fileID: 0}
    - target: {fileID: 400000, guid: 3fbd550bf43bbdb4ba2b9054f2a76946, type: 3}
      propertyPath: m_LocalEulerAnglesHint.y
      value: 0
      objectReference: {fileID: 0}
    - target: {fileID: 400000, guid: 3fbd550bf43bbdb4ba2b9054f2a76946, type: 3}
      propertyPath: m_LocalEulerAnglesHint.z
      value: 0
      objectReference: {fileID: 0}
    - target: {fileID: 2300000, guid: 3fbd550bf43bbdb4ba2b9054f2a76946, type: 3}
      propertyPath: m_Materials.Array.data[0]
      value: 
      objectReference: {fileID: 2100000, guid: 0a0e08d8c0f14f44fb61ddc2a0db6769, type: 2}
    m_RemovedComponents: []
  m_SourcePrefab: {fileID: 100100000, guid: 3fbd550bf43bbdb4ba2b9054f2a76946, type: 3}
--- !u!4 &6925763326567616592 stripped
Transform:
  m_CorrespondingSourceObject: {fileID: 400000, guid: 3fbd550bf43bbdb4ba2b9054f2a76946,
    type: 3}
  m_PrefabInstance: {fileID: 6925763326567484112}
  m_PrefabAsset: {fileID: 0}
